{
    "data" : [
        {
            "id": "AB01D1",
            "REFNAQS": "AB01CD1",
            "img": "https://thumbor.forbes.com/thumbor/fit-in/900x510/https://www.forbes.com/home-improvement/wp-content/uploads/2022/07/download-23.jpg",
            "name": "property name",
            "location": "location string",
            "fundingPrice": 14000000,
            "sharePrice": 1000,
            "fundingProgress": 47, 
            "category": "category 1",
            "isTrending": true,
            "isNew": true,
            "isTrade": true,
            "originCurrency": "USD",
            "status": "funding",
            "metrics": [
                {
                    "lable": "NRY",
                    "description": "Net Rent Yield is the total annual rent profits",
                    "value": 12,
                    "type": "%"
                },
                {
                    "lable": "ZIP10YAR",
                    "description": "the historical yearly appreciation rate for the bast 10 years of the properties\" ZIP code",
                    "value": 16,
                    "type": "%"
                },
                {
                    "lable": "AROI",
                    "description": "the anticipated Annual Return On Investment for the investment",
                    "value": 12,
                    "type": "%"
                }
            ]
        },
        {
            "id": "AB02D2",
            "REFNAQS": "AB02CD2",
            "img": "https://seyler.ekstat.com/img/max/800/E/ErTDFvmCHFcCdCG2-636594883263860324.jpg",
            "name": "property name two",
            "location": "location string for property 2",
            "fundingPrice": 16800000,
            "sharePrice": 1356,
            "fundingProgress": 100, 
            "category": "category 2",
            "isTrending": false,
            "isNew": false,
            "isTrade": true,
            "originCurrency": "USD",
            "status": "trading",
            "metrics": [
                {
                    "lable": "NRY",
                    "description": "Net Rent Yield is the total annual rent profits",
                    "value": 16,
                    "type": "%"
                },
                {
                    "lable": "ZIP10YAR",
                    "description": "the historical yearly appreciation rate for the bast 10 years of the properties\" ZIP code",
                    "value": 11,
                    "type": "%"
                },
                {
                    "lable": "AROI",
                    "description": "the anticipated Annual Return On Investment for the investment",
                    "value": 13,
                    "type": "%"
                }
            ]
        },
        {
            "id": "AB03D3",
            "REFNAQS": "AB03CD3",
            "img": "https://cf.bstatic.com/xdata/images/hotel/max1024x768/453246681.jpg?k=74f2b34103e457116cd627055b73b90e677898ac34b7292336edd6f96149efa7&o=&hp=1",
            "name": "property name",
            "location": "location string",
            "fundingPrice": 49000000,
            "sharePrice": 1000,
            "fundingProgress": 32, 
            "category": "category 3",
            "isTrending": true,
            "isNew": true,
            "isTrade": false,
            "status": "funding",
            "originCurrency": "USD",
            "metrics": [
                {
                    "lable": "NRY",
                    "description": "Net Rent Yield is the total annual rent profits",
                    "value": 11,
                    "type": "%"
                },
                {
                    "lable": "ZIP10YAR",
                    "description": "the historical yearly appreciation rate for the bast 10 years of the properties\" ZIP code",
                    "value": 14,
                    "type": "%"
                },
                {
                    "lable": "AROI",
                    "description": "the anticipated Annual Return On Investment for the investment",
                    "value": 9,
                    "type": "%"
                }
            ]
        },
        {
            "id": "AB04D4",
            "REFNAQS": "AB04CD4",
            "img": "https://www.bhg.com/thmb/H9VV9JNnKl-H1faFXnPlQfNprYw=/1799x0/filters:no_upscale():strip_icc()/white-modern-house-curved-patio-archway-c0a4a3b3-aa51b24d14d0464ea15d36e05aa85ac9.jpg",
            "name": "property name four",
            "location": "location string four",
            "fundingPrice": 36400000,
            "sharePrice": 1232,
            "fundingProgress": 100, 
            "category": "category 1",
            "isTrending": true,
            "isNew": false,
            "isTrade": true,
            "status": "trading",
            "originCurrency": "USD",
            "metrics": [
                {
                    "lable": "NRY",
                    "description": "Net Rent Yield is the total annual rent profits",
                    "value": 16,
                    "type": "%"
                },
                {
                    "lable": "ZIP10YAR",
                    "description": "the historical yearly appreciation rate for the bast 10 years of the properties\" ZIP code",
                    "value": 13,
                    "type": "%"
                },
                {
                    "lable": "AROI",
                    "description": "the anticipated Annual Return On Investment for the investment",
                    "value": 10,
                    "type": "%"
                }
            ]
        },
        {
            "id": "AB05D5",
            "REFNAQS": "AB05CD5",
            "img": "https://www.bankrate.com/2022/08/04093343/Buying-a-house-with-an-LLC.jpg?auto=webp&optimize=high&crop=16:9",
            "name": "property name five",
            "location": "location string five",
            "fundingPrice": 36500000,
            "sharePrice": 1000,
            "fundingProgress": 97, 
            "category": "category 5",
            "isTrending": true,
            "isNew": true,
            "isTrade": false,
            "status": "funding",
            "originCurrency": "USD",
            "metrics": [
                {
                    "lable": "NRY",
                    "description": "Net Rent Yield is the total annual rent profits",
                    "value": 10,
                    "type": "%"
                },
                {
                    "lable": "ZIP10YAR",
                    "description": "the historical yearly appreciation rate for the bast 10 years of the properties\" ZIP code",
                    "value": 15,
                    "type": "%"
                },
                {
                    "lable": "AROI",
                    "description": "the anticipated Annual Return On Investment for the investment",
                    "value": 14,
                    "type": "%"
                }
            ]
        },
        {
            "id": "AB06D6",
            "REFNAQS": "AB06CD6",
            "img": "https://www.karmod.com/media/projects/261/prefab-homes-turkey-istanbul-89197.jpg",
            "name": "property name",
            "location": "location string",
            "fundingPrice": 68080000,
            "sharePrice": 2167,
            "fundingProgress": 100, 
            "category": "category 6",
            "isTrending": false,
            "isNew": false,
            "isTrade": false,
            "status": "done",
            "originCurrency": "USD",
            "metrics": [
                {
                    "lable": "NRY",
                    "description": "Net Rent Yield is the total annual rent profits",
                    "value": 9,
                    "type": "%"
                },
                {
                    "lable": "ZIP10YAR",
                    "description": "the historical yearly appreciation rate for the bast 10 years of the properties\" ZIP code",
                    "value": 10,
                    "type": "%"
                },
                {
                    "lable": "AROI",
                    "description": "the anticipated Annual Return On Investment for the investment",
                    "value": 8,
                    "type": "%"
                }
            ]
        },
        {
            "id": "AB07D7",
            "REFNAQS": "AB07CD7",
            "img": "https://cf.bstatic.com/xdata/images/hotel/max1024x768/315593928.jpg?k=b7fe6ae93113ebb5e7550ffc968632627b46dc1a9cd725f1031cdd1f471a8646&o=&hp=1",
            "name": "property name seven",
            "location": "location string seven",
            "fundingPrice": 23400000,
            "sharePrice": 1608,
            "fundingProgress": 100, 
            "category": "category 7",
            "isTrending": true,
            "isNew": false,
            "isTrade": true,
            "status": "trading",
            "originCurrency": "USD",
            "metrics": [
                {
                    "lable": "NRY",
                    "description": "Net Rent Yield is the total annual rent profits",
                    "value": 16,
                    "type": "%"
                },
                {
                    "lable": "ZIP10YAR",
                    "description": "the historical yearly appreciation rate for the bast 10 years of the properties\" ZIP code",
                    "value": 17,
                    "type": "%"
                },
                {
                    "lable": "AROI",
                    "description": "the anticipated Annual Return On Investment for the investment",
                    "value": 16,
                    "type": "%"
                }
            ]
        },
        {
            "id": "AB08D8",
            "REFNAQS": "AB08CD8",
            "img": "https://i0.wp.com/pediaa.com/wp-content/uploads/2018/10/Difference-Between-Home-and-House_Figure-1.jpg?fit=640%2C480&ssl=1",
            "name": "property name eight",
            "location": "location string eight",
            "fundingPrice": 43650000,
            "sharePrice": 1716,
            "fundingProgress": 100, 
            "category": "category 8",
            "isTrending": false,
            "isNew": false,
            "isTrade": false,
            "status": "exited",
            "originCurrency": "USD",
            "metrics": [
                {
                    "lable": "NRY",
                    "description": "Net Rent Yield is the total annual rent profits",
                    "value": 12,
                    "type": "%"
                },
                {
                    "lable": "ZIP10YAR",
                    "description": "the historical yearly appreciation rate for the bast 10 years of the properties\" ZIP code",
                    "value": 16,
                    "type": "%"
                },
                {
                    "lable": "AROI",
                    "description": "the anticipated Annual Return On Investment for the investment",
                    "value": 12,
                    "type": "%"
                }
            ]
        },
        {
            "id": "AB09D9",
            "REFNAQS": "AB09CD9",
            "img": "https://cdn.houseplansservices.com/product/rafs7ma1bsci6dok77m05ml1l5/w800x533.jpg?v=11",
            "name": "property name nine",
            "location": "location string nine",
            "fundingPrice": 98500000,
            "sharePrice": 1000,
            "fundingProgress": 67, 
            "category": "category 9",
            "isTrending": true,
            "isNew": false,
            "isTrade": false,
            "status": "funding",
            "originCurrency": "USD",
            "metrics": [
                {
                    "lable": "NRY",
                    "description": "Net Rent Yield is the total annual rent profits",
                    "value": 12,
                    "type": "%"
                },
                {
                    "lable": "ZIP10YAR",
                    "description": "the historical yearly appreciation rate for the bast 10 years of the properties\" ZIP code",
                    "value": 8,
                    "type": "%"
                },
                {
                    "lable": "AROI",
                    "description": "the anticipated Annual Return On Investment for the investment",
                    "value": 9,
                    "type": "%"
                }
            ]
        }
    ],
    "meta" : {
        "total" : 40,
        "per_page": 9,
        "current_page": 1,
        "last_page": 5
    }
}